{
	"$schema": "https://json.schemastore.org/jsconfig",
	"compilerOptions": {
		"target": "esnext",
		"module": "es6",
		"lib": ["dom", "esnext", "es2022"],
		"types": [
			"@league-of-foundry-developers/foundry-vtt-types/index-lenient"
		],
		"noImplicitAny": false,
		"noImplicitThis": true,
		"checkJs": true,
		"disableReferencedProjectLoad": true,
		"strict": true,
		"strictFunctionTypes": true,
		"strictBindCallApply": true,
		"strictNullChecks": true,
		"strictPropertyInitialization": false,
		"forceConsistentCasingInFileNames": false,
		"newLine": "lf"
	},
	"display": "Recommended",
	"include": ["**/*.mjs", "./foundry-dev.mjs"],
	"exclude": ["node_modules"],
	"typeAcquisition": {
		"enable": true,
		"include": ["jquery", "handlebars"]
	}
}
